<?xml version="1.0" encoding="UTF-8" standalone="no"?>
<!-- Created with Inkscape (http://www.inkscape.org/) -->

<svg
   xmlns:dc="http://purl.org/dc/elements/1.1/"
   xmlns:cc="http://creativecommons.org/ns#"
   xmlns:rdf="http://www.w3.org/1999/02/22-rdf-syntax-ns#"
   xmlns:svg="http://www.w3.org/2000/svg"
   xmlns="http://www.w3.org/2000/svg"
   xmlns:xlink="http://www.w3.org/1999/xlink"
   xmlns:sodipodi="http://sodipodi.sourceforge.net/DTD/sodipodi-0.dtd"
   xmlns:inkscape="http://www.inkscape.org/namespaces/inkscape"
   width="540"
   height="810"
   id="svg2"
   version="1.1"
   inkscape:version="0.48.3.1 r9886"
   sodipodi:docname="frontCoverTie.svg">
  <defs
     id="defs4">
    <linearGradient
       id="linearGradient4490">
      <stop
         style="stop-color:#25628a;stop-opacity:0.63565892;"
         offset="0"
         id="stop4492" />
      <stop
         style="stop-color:#25628a;stop-opacity:0;"
         offset="1"
         id="stop4494" />
    </linearGradient>
    <linearGradient
       id="linearGradient4474">
      <stop
         style="stop-color:#aa0000;stop-opacity:1;"
         offset="0"
         id="stop4476" />
      <stop
         style="stop-color:#217fa0;stop-opacity:0;"
         offset="1"
         id="stop4478" />
    </linearGradient>
    <linearGradient
       id="linearGradient4418">
      <stop
         style="stop-color:#000000;stop-opacity:0.58095241;"
         offset="0"
         id="stop4420" />
      <stop
         style="stop-color:#ffffff;stop-opacity:0;"
         offset="1"
         id="stop4422" />
    </linearGradient>
    <linearGradient
       inkscape:collect="always"
       xlink:href="#linearGradient4418"
       id="linearGradient4458"
       gradientUnits="userSpaceOnUse"
       gradientTransform="matrix(1,0,0,-0.99999997,-4e-6,-242.35973)"
       x1="271.73105"
       y1="-65.802238"
       x2="262.63968"
       y2="202.89835" />
    <filter
       id="filter6626"
       style="color-interpolation-filters:sRGB;"
       inkscape:label="Drop Shadow">
      <feFlood
         id="feFlood6628"
         flood-opacity="0.713"
         flood-color="rgb(0,0,0)"
         result="flood" />
      <feComposite
         id="feComposite6630"
         in2="SourceGraphic"
         in="flood"
         operator="in"
         result="composite1" />
      <feGaussianBlur
         id="feGaussianBlur6632"
         in="composite"
         stdDeviation="7.2"
         result="blur" />
      <feOffset
         id="feOffset6634"
         dx="2"
         dy="6.5"
         result="offset" />
      <feComposite
         id="feComposite6636"
         in2="offset"
         in="SourceGraphic"
         operator="over"
         result="composite2" />
    </filter>
    <filter
       inkscape:collect="always"
       id="filter6668">
      <feGaussianBlur
         inkscape:collect="always"
         stdDeviation="4.8179723"
         id="feGaussianBlur6670" />
    </filter>
    <filter
       inkscape:collect="always"
       id="filter7238">
      <feGaussianBlur
         inkscape:collect="always"
         stdDeviation="4.5591497"
         id="feGaussianBlur7240" />
    </filter>
    <filter
       inkscape:collect="always"
       id="filter7256">
      <feGaussianBlur
         inkscape:collect="always"
         stdDeviation="3.4423225"
         id="feGaussianBlur7258" />
    </filter>
    <filter
       inkscape:collect="always"
       id="filter7272">
      <feGaussianBlur
         inkscape:collect="always"
         stdDeviation="1.77786"
         id="feGaussianBlur7274" />
    </filter>
  </defs>
  <sodipodi:namedview
     id="base"
     pagecolor="#ffffff"
     bordercolor="#666666"
     borderopacity="1.0"
     inkscape:pageopacity="0.0"
     inkscape:pageshadow="2"
     inkscape:zoom="0.35"
     inkscape:cx="337.06189"
     inkscape:cy="551.48764"
     inkscape:document-units="px"
     inkscape:current-layer="layer1"
     showgrid="false"
     units="in"
     inkscape:window-width="1272"
     inkscape:window-height="747"
     inkscape:window-x="0"
     inkscape:window-y="27"
     inkscape:window-maximized="1"
     showguides="true"
     inkscape:guide-bbox="true"
     inkscape:snap-global="false">
    <sodipodi:guide
       orientation="0,1"
       position="465.71429,825.71429"
       id="guide4412" />
    <sodipodi:guide
       orientation="0,1"
       position="160,1288.5714"
       id="guide4426" />
    <sodipodi:guide
       orientation="1,0"
       position="-4.0406102,264.65997"
       id="guide4428" />
    <sodipodi:guide
       orientation="1,0"
       position="543.46207,711.14739"
       id="guide4430" />
    <sodipodi:guide
       orientation="0,1"
       position="775.79715,4.0406102"
       id="guide6978" />
  </sodipodi:namedview>
  <metadata
     id="metadata7">
    <rdf:RDF>
      <cc:Work
         rdf:about="">
        <dc:format>image/svg+xml</dc:format>
        <dc:type
           rdf:resource="http://purl.org/dc/dcmitype/StillImage" />
        <dc:title></dc:title>
      </cc:Work>
    </rdf:RDF>
  </metadata>
  <g
     inkscape:label="Layer 1"
     inkscape:groupmode="layer"
     id="layer1"
     transform="translate(0,-242.35975)">
    <rect
       style="fill:#ffffff;fill-opacity:1;stroke:#000000;stroke-width:0.50000000000000000;stroke-linecap:round;stroke-linejoin:round;stroke-miterlimit:4;stroke-opacity:1;stroke-dasharray:none;stroke-dashoffset:0"
       id="rect6974"
       width="628.57141"
       height="974.28571"
       x="-42.857143"
       y="-101.42857"
       transform="translate(0,242.35975)"
       rx="9.4980049"
       ry="9.4980049"
       inkscape:export-filename="/media/ixsystems/sxe/books/I.EFH/images/frontCoverTie.png"
       inkscape:export-xdpi="300"
       inkscape:export-ydpi="300" />
    <path
       inkscape:connector-curvature="0"
       id="path6638"
       d="m 248.43661,373.23266 -36.36549,503.05597 64.64976,177.78687 82.83251,-218.19297 -70.71068,-476.792 z"
       style="fill:#252525;fill-opacity:1;stroke:none;filter:url(#filter6668)"
       inkscape:export-filename="/media/ixsystems/sxe/books/I.EFH/images/frontCoverTie.png"
       inkscape:export-xdpi="300"
       inkscape:export-ydpi="300" />
    <path
       sodipodi:nodetypes="ccccc"
       inkscape:connector-curvature="0"
       id="path7228"
       d="m 248.1227,376.18808 42.78864,-1.13257 56.91889,-114.08516 -168.05744,12.51476 z"
       style="fill:#000000;fill-opacity:1;stroke:#000000;stroke-width:1.09800923px;stroke-linecap:butt;stroke-linejoin:miter;stroke-opacity:1;filter:url(#filter7238)"
       transform="matrix(0.89470434,0,0,0.92706142,29.205724,23.951002)"
       inkscape:export-filename="/media/ixsystems/sxe/books/I.EFH/images/frontCoverTie.png"
       inkscape:export-xdpi="300"
       inkscape:export-ydpi="300" />
    <path
       style="fill:#6dbf7f;fill-opacity:1;stroke:#000000;stroke-width:1px;stroke-linecap:butt;stroke-linejoin:miter;stroke-opacity:1"
       d="m 242.43661,343.23266 -36.36549,503.05597 64.64976,177.78687 82.83251,-218.19297 -70.71068,-476.792 z"
       id="path6518"
       inkscape:connector-curvature="0"
       inkscape:export-filename="/media/ixsystems/sxe/books/I.EFH/images/frontCoverTie.png"
       inkscape:export-xdpi="300"
       inkscape:export-ydpi="300" />
    <path
       style="fill:#ffffff;fill-opacity:1;stroke:#000000;stroke-width:1.39999995;stroke-linecap:butt;stroke-linejoin:miter;stroke-opacity:1;stroke-miterlimit:4;stroke-dasharray:none"
       d="m 220.69803,117.98895 38.73243,222.29664 56.22191,-236.43877 z"
       id="path6525"
       inkscape:connector-curvature="0"
       sodipodi:nodetypes="cccc"
       inkscape:export-filename="/media/ixsystems/sxe/books/I.EFH/images/frontCoverTie.png"
       inkscape:export-xdpi="300"
       inkscape:export-ydpi="300" />
    <path
       style="opacity:1;fill:#1f1f1f;fill-opacity:1;stroke:none"
       d="M -41.46875 -95.71875 C -46.730645 -95.71875 -50.96875 -91.480645 -50.96875 -86.21875 L -50.96875 863.40625 C -50.96875 868.66814 -46.730645 872.90625 -41.46875 872.90625 L 585.875 872.90625 C 591.13689 872.90625 595.375 868.66814 595.375 863.40625 L 595.375 -86.21875 C 595.375 -91.480645 591.13689 -95.71875 585.875 -95.71875 L -41.46875 -95.71875 z M -2.03125 -66.21875 L 543.46875 -66.21875 L 260.625 727.15625 L -2.03125 -66.21875 z "
       id="rect4416"
       transform="translate(0,242.35975)"
       inkscape:export-filename="/media/ixsystems/sxe/books/I.EFH/images/frontCoverTie.png"
       inkscape:export-xdpi="300"
       inkscape:export-ydpi="300" />
    <path
       style="opacity:1;fill:#1f1f1f;fill-opacity:1;stroke:none;filter:url(#filter6626)"
       d="M -41.46875 -95.71875 C -46.730645 -95.71875 -50.96875 -91.480645 -50.96875 -86.21875 L -50.96875 -28.21875 L 247.40625 872.90625 L 269.75 872.90625 L 595.375 -40.40625 L 595.375 -86.21875 C 595.375 -91.480645 591.13689 -95.71875 585.875 -95.71875 L -41.46875 -95.71875 z M -2.03125 -66.21875 L 543.46875 -66.21875 L 260.625 727.15625 L -2.03125 -66.21875 z "
       id="path6527"
       transform="translate(0,242.35975)"
       inkscape:export-filename="/media/ixsystems/sxe/books/I.EFH/images/frontCoverTie.png"
       inkscape:export-xdpi="300"
       inkscape:export-ydpi="300" />
    <g
       id="g6942"
       inkscape:export-filename="/media/ixsystems/sxe/books/I.EFH/images/frontCoverTie.png"
       inkscape:export-xdpi="300"
       inkscape:export-ydpi="300">
      <rect
         style="fill:#000000;fill-opacity:1;stroke:none"
         id="rect6858"
         width="232.52434"
         height="87.345856"
         x="370.90228"
         y="729.71222"
         rx="0"
         ry="0" />
      <path
         sodipodi:nodetypes="ccccccccccccccccccccc"
         inkscape:connector-curvature="0"
         id="path3781"
         d="m 395.08188,795.51955 18.21976,1.51638 4.26038,-13.25718 -4.01611,-6.13009 -17.37918,-3.176 -4.81357,-3.85274 0.96271,-21.67171 5.29494,-4.33433 23.10518,0 0.48135,7.2239 -19.25431,-0.96319 -3.36951,0.96319 -1.44406,13.48461 2.40678,4.33434 21.6611,1.44478 2.33495,8.40191 -0.40952,15.67775 -3.34795,6.04589 -32.75388,-0.26677 1.1064,-8.47352 z"
         style="fill:#ffffff;fill-opacity:1;stroke:none" />
      <path
         inkscape:connector-curvature="0"
         id="path3783"
         d="m 442.41206,772.2358 c -12.18612,-0.0561 -17.36404,12.68522 -15.00562,23.2708 4.67616,8.48606 9.18898,5.9613 18.87803,7.07926 15.17875,-7.63675 13.13537,-21.24371 1.7789,-29.50298 -2.02553,-0.57412 -3.91044,-0.83907 -5.65131,-0.84708 z m 4.63479,5.76021 1.93621,2.58969 0,10.38291 -2.58968,5.83283 -12.89999,-1.94831 1.93621,-11.02429 1.93621,-4.53799 9.68104,-1.29484 z"
         style="fill:#ffffff;fill-opacity:1;stroke:none" />
      <path
         style="fill:#ffffff;fill-opacity:1;stroke:none"
         d="m 467.83231,769.72389 -6.67974,1.0429 -2.29815,28.2107 9.93803,4.46947 16.60079,-1.03324 c 3.51097,-9.95445 3.20517,-21.19988 2.35667,-32.62888 l -4.43533,2.19329 -1.7547,21.56737 -3.88457,2.74892 -10.5108,-0.57272 c -1.25861,-7.30691 1.92013,-17.26607 0.6678,-25.99782 z"
         id="path3785"
         inkscape:connector-curvature="0"
         sodipodi:nodetypes="cccccccccccc" />
      <path
         inkscape:connector-curvature="0"
         id="path3787"
         d="m 493.23579,804.54627 0.55321,-62.51187 6.08522,0.55321 -1.1064,61.40546 z"
         style="fill:#ffffff;fill-opacity:1;stroke:none" />
      <path
         sodipodi:nodetypes="cccccccccccccccc"
         inkscape:connector-curvature="0"
         id="path3789"
         d="m 505.45355,804.12834 3.42558,-4.27278 9.89789,-1.08925 3.72815,-1.52336 -1.94696,-7.57733 -13.49976,-1.29708 -3.05198,-2.44684 -0.35257,-13.31821 19.48795,0.0815 -0.0658,4.45959 -13.19718,1.45233 1.03399,4.33855 15.33094,2.76518 2.85993,10.81611 -1.47336,6.84065 z"
         style="fill:#ffffff;fill-opacity:1;stroke:none" />
    </g>
    <g
       id="g6932"
       inkscape:export-filename="/media/ixsystems/sxe/books/I.EFH/images/frontCoverTie.png"
       inkscape:export-xdpi="300"
       inkscape:export-ydpi="300">
      <rect
         ry="0"
         rx="0"
         y="713.5498"
         x="-67.563377"
         height="103.50829"
         width="233.50475"
         id="rect4452"
         style="fill:#000000;fill-opacity:1;stroke:none" />
      <g
         id="g6881">
        <path
           transform="matrix(0,0.35714286,-0.35714286,0,268.86669,741.05091)"
           d="m 69.285713,393.57144 a 2.5,2.1428571 0 1 1 -5,0 2.5,2.1428571 0 1 1 5,0 z"
           sodipodi:ry="2.1428571"
           sodipodi:rx="2.5"
           sodipodi:cy="393.57144"
           sodipodi:cx="66.785713"
           id="path4784"
           style="fill:#ffffff;fill-opacity:1;stroke:none"
           sodipodi:type="arc" />
        <path
           style="fill:#ffffff;fill-opacity:1;stroke:none"
           d="M 10.01721,791.38599 9.464,734.40616 l 9.40444,0.55319 13.27686,47.57541 0,-46.469 9.95764,-1.10641 -1.6596,61.95867 -7.74483,-0.5532 -17.14928,-37.06456 2.21281,37.61776 -10.51084,0 z"
           id="path3763"
           inkscape:connector-curvature="0" />
        <path
           style="fill:#ffffff;fill-opacity:1;stroke:none"
           d="m 48.18818,768.1515 -0.55321,28.21332 6.08523,0 0.5532,-28.21332 z"
           id="path3765"
           inkscape:connector-curvature="0" />
        <path
           style="fill:#ffffff;fill-opacity:1;stroke:none"
           d="m 67.5468,768.70643 -5.5303,4.42908 -2.21454,17.6921 3.32786,4.98573 14.37635,1.65788 0.55666,6.08696 -15.48967,-0.55666 0,7.18817 24.33573,0 -1.65788,-35.95297 -6.08696,-4.42908 -11.61725,-1.10121 z m 9.40271,6.63151 1.66999,2.21454 0,8.85815 -2.21454,4.97364 -11.0727,-1.65788 1.66998,-9.40271 1.65788,-3.87242 8.28939,-1.11332 z"
           id="path3767"
           inkscape:connector-curvature="0" />
        <path
           inkscape:connector-curvature="0"
           id="path3769"
           d="m 92.99757,739.38497 -0.55321,57.53305 7.19163,-0.5532 -0.5532,-18.80889 11.06405,1.10641 1.10641,19.91529 8.29803,-1.10641 -3.31921,-25.44731 -17.14928,-3.87241 -1.1064,-29.31973 z"
           style="fill:#ffffff;fill-opacity:1;stroke:none" />
        <path
           style="fill:#ffffff;fill-opacity:1;stroke:none"
           d="m 128.40252,739.38497 0.5532,55.32024 3.87242,3.31922 17.70248,1.1064 -1.65961,-6.08523 -12.72366,-1.1064 -1.1064,-26.55372 9.40444,0 -1.65961,-4.97882 -7.19163,1.10641 -1.65961,-22.6813 z"
           id="path3771"
           inkscape:connector-curvature="0" />
      </g>
    </g>
    <g
       id="g6958"
       inkscape:export-filename="/media/ixsystems/sxe/books/I.EFH/images/frontCoverTie.png"
       inkscape:export-xdpi="300"
       inkscape:export-ydpi="300">
      <rect
         ry="0"
         rx="0"
         y="725.67163"
         x="180.99361"
         height="87.692497"
         width="174.85645"
         id="rect6860"
         style="fill:#000000;fill-opacity:1;stroke:none" />
      <path
         style="fill:#ffffff;fill-opacity:1;stroke:none"
         d="m 187.76335,742.31919 60.29906,1.1064 0,9.40445 -24.8941,-1.10641 2.21282,49.23501 -9.95765,0 -2.76603,-47.0222 -28.2133,-2.76601 z"
         id="path3773"
         inkscape:connector-curvature="0" />
      <path
         style="fill:#ffffff;fill-opacity:1;stroke:none"
         d="m 250.82844,743.9788 -0.55321,57.53304 7.19162,-0.5532 -0.55318,-18.80888 11.06404,1.10641 1.10639,19.91528 8.29802,-1.1064 -3.31918,-25.44732 -17.14927,-3.87241 -1.10642,-29.31973 z"
         id="path3775"
         inkscape:connector-curvature="0" />
      <path
         inkscape:connector-curvature="0"
         id="path3777"
         d="m 293.21066,770.28719 c -5.22032,-0.003 -9.91461,0.88456 -14.72731,1.56107 l 2.21458,4.42908 21.57656,1.65788 0,4.98574 -8.84599,-1.11333 -11.07267,2.77121 6.08692,15.48966 27.10688,1.10122 -3.31574,-10.50393 -1.10124,-16.60299 c -6.94515,-2.87772 -12.70174,-3.7727 -17.92199,-3.77561 z m 7.96266,16.50619 3.31574,0.54455 0.55667,11.07269 -12.1739,-1.66997 -3.31575,-6.07486 1.65784,-3.32786 9.9594,-0.54455 z"
         style="fill:#ffffff;fill-opacity:1;stroke:none" />
      <path
         style="fill:#ffffff;fill-opacity:1;stroke:none"
         d="m 319.42552,743.42559 0.55319,55.32024 3.87241,3.31922 17.70249,1.1064 -1.65958,-6.08523 -12.72369,-1.1064 -1.10638,-26.55372 9.40446,0 -1.65964,-4.97882 -7.19163,1.10641 -1.65964,-22.6813 z"
         id="path3779"
         inkscape:connector-curvature="0" />
    </g>
    <path
       transform="matrix(0.35714286,0,0,0.35714286,228.77067,650.22784)"
       d="m 69.285713,393.57144 a 2.5,2.1428571 0 1 1 -5,0 2.5,2.1428571 0 1 1 5,0 z"
       sodipodi:ry="2.1428571"
       sodipodi:rx="2.5"
       sodipodi:cy="393.57144"
       sodipodi:cx="66.785713"
       id="path4720"
       style="fill:#ffffff;fill-opacity:1;stroke:none"
       sodipodi:type="arc"
       inkscape:export-filename="/media/ixsystems/sxe/books/I.EFH/images/frontCoverTie.png"
       inkscape:export-xdpi="300"
       inkscape:export-ydpi="300" />
    <g
       id="g6950"
       inkscape:export-filename="/media/ixsystems/sxe/books/I.EFH/images/frontCoverTie.png"
       inkscape:export-xdpi="300"
       inkscape:export-ydpi="300">
      <rect
         ry="0"
         rx="0"
         y="836.99799"
         x="-71.240578"
         height="80.202995"
         width="230.38148"
         id="rect6915"
         style="fill:#000000;fill-opacity:1;stroke:none" />
      <path
         transform="matrix(0.35714286,0,0,0.35714286,109.29603,732.6361)"
         d="m 69.285713,393.57144 a 2.5,2.1428571 0 1 1 -5,0 2.5,2.1428571 0 1 1 5,0 z"
         sodipodi:ry="2.1428571"
         sodipodi:rx="2.5"
         sodipodi:cy="393.57144"
         sodipodi:cx="66.785713"
         id="path4714"
         style="fill:#ffffff;fill-opacity:1;stroke:none"
         sodipodi:type="arc" />
      <path
         inkscape:connector-curvature="0"
         id="path3791"
         d="m 9.29581,843.111 9.95765,58.08624 7.74483,0.55321 6.08523,-23.78771 3.3192,23.78771 8.29805,0 12.72364,-58.08625 -7.74484,0.55321 -7.19161,42.04337 -2.21282,0 -4.42563,-14.93645 -7.19162,0 -4.42563,19.36208 -1.6596,0 -5.53202,-47.57541 z"
         style="fill:#ffffff;fill-opacity:1;stroke:none" />
      <path
         inkscape:connector-curvature="0"
         id="path3793"
         d="m 61.00635,871.27615 -4.42908,9.95937 1.11332,16.59088 c 9.96981,3.46705 21.21207,3.11344 32.63721,2.21454 l -2.21454,-4.42908 -21.57662,-1.65788 -2.75909,-3.87241 0,-4.42908 c 7.30132,-1.29083 17.26745,1.8475 25.99359,0.55666 L 80.36843,871.8207 61.00635,871.27615 z m 14.933,3.87241 3.32786,0.54456 1.65788,4.42908 -14.933,0.55666 -1.66999,-1.65788 1.66999,-3.32786 9.94726,-0.54456 z"
         style="fill:#ffffff;fill-opacity:1;stroke:none" />
      <path
         inkscape:connector-curvature="0"
         id="path3795"
         d="m 120.03731,870.96845 -4.42908,9.95938 1.11332,16.59088 c 9.96981,3.46705 21.21208,3.11344 32.63721,2.21454 l -2.21454,-4.42908 -21.57662,-1.65788 -2.77119,-3.87242 0,-4.42907 c 7.30132,-1.29079 17.27955,1.84746 26.00569,0.55666 l -9.40271,-14.37635 -19.36208,-0.55666 z m 13.83179,4.42908 3.31575,0.54456 1.65788,4.42908 -14.933,0.55666 -1.65788,-1.65788 1.65788,-3.32786 9.95937,-0.54456 z"
         style="fill:#ffffff;fill-opacity:1;stroke:none" />
      <path
         inkscape:connector-curvature="0"
         id="path3797"
         d="m 93.38259,900.13547 -0.55322,-29.31973 4.97881,0 0,2.21282 3.31924,-1.65961 8.29801,0 4.97884,3.31921 0.55317,2.76603 -3.3192,2.76598 -4.42563,-2.76598 -4.9788,-1.10643 -2.21282,1.10643 -0.55321,23.2345 z"
         style="fill:#ffffff;fill-opacity:1;stroke:none" />
    </g>
    <path
       sodipodi:type="arc"
       style="fill:#ffffff;fill-opacity:1;stroke:none"
       id="path4762"
       sodipodi:cx="66.785713"
       sodipodi:cy="393.57144"
       sodipodi:rx="2.5"
       sodipodi:ry="2.1428571"
       d="m 69.285713,393.57144 a 2.5,2.1428571 0 1 1 -5,0 2.5,2.1428571 0 1 1 5,0 z"
       transform="matrix(0.33002157,0.13651661,-0.13651661,0.33002157,328.36191,719.30765)"
       inkscape:export-filename="/media/ixsystems/sxe/books/I.EFH/images/frontCoverTie.png"
       inkscape:export-xdpi="300"
       inkscape:export-ydpi="300" />
    <g
       id="g6965"
       inkscape:export-filename="/media/ixsystems/sxe/books/I.EFH/images/frontCoverTie.png"
       inkscape:export-xdpi="300"
       inkscape:export-ydpi="300">
      <rect
         style="fill:#000000;fill-opacity:1;stroke:none"
         id="rect6917"
         width="150.38148"
         height="75.202995"
         x="178.04514"
         y="835.56946"
         rx="0"
         ry="0" />
      <path
         inkscape:connector-curvature="0"
         id="path3799"
         d="m 193.84858,842.09735 8.85126,0 -3.87242,50.92826 22.12808,0.50929 0,7.12996 -29.87291,-1.01857 z"
         style="fill:#ffffff;fill-opacity:1;stroke:none" />
      <path
         style="fill:#ffffff;fill-opacity:1;stroke:none"
         d="m 288.10976,840.66734 0.55326,55.32024 3.87241,3.31921 17.70249,1.10638 -1.65965,-6.08519 -12.72362,-1.10643 -1.10638,-26.5537 9.4044,0 -1.65958,-4.97884 -7.19169,1.10642 -1.65958,-22.6813 z"
         id="path3801"
         inkscape:connector-curvature="0" />
      <path
         inkscape:connector-curvature="0"
         id="path3803"
         d="m 241.68389,869.56636 c -12.18607,-0.0561 -17.36399,12.69735 -15.00561,23.28291 4.67617,8.48605 9.20109,5.9613 18.89015,7.07926 15.17875,-7.63675 13.12327,-21.24373 1.76679,-29.50298 -2.02551,-0.57412 -3.91045,-0.85118 -5.65133,-0.85919 z m -4.35647,5.30037 8.99129,1.56107 3.59407,4.25966 -2.7591,12.04079 -3.13422,1.96042 -11.81087,-2.50497 -1.37955,-3.27946 1.37955,-10.62494 5.11883,-3.41257 z"
         style="fill:#ffffff;fill-opacity:1;stroke:none" />
      <path
         style="fill:#ffffff;fill-opacity:1;stroke:none"
         d="m 260.66518,899.44205 3.42558,-4.27279 9.8979,-1.08924 3.72819,-1.52336 -1.94699,-7.57731 -13.49976,-1.29711 -3.052,-2.44682 -0.35255,-13.31822 19.48796,0.0816 -0.0658,4.45955 -13.1972,1.45235 1.03401,4.33854 15.33092,2.76518 2.85992,10.81612 -1.47334,6.84062 z"
         id="path3805"
         inkscape:connector-curvature="0"
         sodipodi:nodetypes="cccccccccccccccc" />
    </g>
    <g
       id="g6925"
       inkscape:export-filename="/media/ixsystems/sxe/books/I.EFH/images/frontCoverTie.png"
       inkscape:export-xdpi="300"
       inkscape:export-ydpi="300">
      <rect
         ry="0"
         rx="0"
         y="599.59113"
         x="-66.165421"
         height="94.366203"
         width="256.40396"
         id="rect4448"
         style="fill:#000000;fill-opacity:1;stroke:none" />
      <g
         transform="translate(0,-16)"
         id="g6868">
        <path
           style="fill:#ffffff;fill-opacity:1;stroke:none"
           d="m 32.144301,632.06471 60.29907,1.1064 0,9.40444 -24.89412,-1.1064 2.21282,49.23501 -9.95765,0 -2.76601,-47.0222 -28.21332,-2.76602 z"
           id="path3757"
           inkscape:connector-curvature="0" />
        <path
           style="fill:#ffffff;fill-opacity:1;stroke:none"
           d="m 95.209381,633.72431 -0.55321,57.53305 7.191629,-0.5532 -0.5532,-18.80888 11.06406,1.10641 1.1064,19.91528 8.29803,-1.10641 -3.31921,-25.4473 -17.14928,-3.87242 -1.1064,-29.31973 z"
           id="path3759"
           inkscape:connector-curvature="0" />
        <path
           style="fill:#ffffff;fill-opacity:1;stroke:none"
           d="m 130.06113,661.67837 -4.42907,9.94728 1.11331,16.60299 c 9.96984,3.46704 21.21207,3.11341 32.63721,2.21454 l -2.21454,-4.42908 -21.57661,-1.65788 -2.7591,-3.87242 0,-4.42907 c 7.3013,-1.29081 17.26744,1.84746 25.99359,0.55666 l -9.40271,-14.38845 -19.36208,-0.54457 z m 14.38845,4.41699 3.31576,0.55665 1.65787,4.42908 -14.933,0.54456 -1.65788,-1.65788 1.65788,-3.31576 9.95937,-0.55665 z"
           id="path3761"
           inkscape:connector-curvature="0" />
      </g>
    </g>
    <text
       xml:space="preserve"
       style="font-size:49.07784653px;font-style:normal;font-weight:normal;line-height:125%;letter-spacing:0px;word-spacing:0px;fill:#ffffff;fill-opacity:1;stroke:none;font-family:Sans"
       x="360.32315"
       y="954.80292"
       id="text4432"
       sodipodi:linespacing="125%"
       transform="matrix(0.9999493,0.01006972,-0.01006972,0.9999493,0,0)"
       inkscape:export-filename="/media/ixsystems/sxe/books/I.EFH/images/frontCoverTie.png"
       inkscape:export-xdpi="300"
       inkscape:export-ydpi="300"><tspan
         sodipodi:role="line"
         x="360.32315"
         y="954.80292"
         id="tspan4436"
         style="font-style:normal;font-variant:normal;font-weight:normal;font-stretch:normal;text-align:center;text-anchor:middle;fill:#ffffff;fill-opacity:1;font-family:Kiss Kiss From Paris;-inkscape-font-specification:Kiss Kiss From Paris">A Detective Novel</tspan></text>
    <text
       transform="matrix(0.99983402,-0.01821883,0.01821883,0.99983402,0,0)"
       sodipodi:linespacing="125%"
       id="text4440"
       y="1017.7248"
       x="325.64401"
       style="font-size:49.54650879px;font-style:normal;font-weight:normal;line-height:125%;letter-spacing:0px;word-spacing:0px;fill:#ffffff;fill-opacity:1;stroke:none;font-family:Sans"
       xml:space="preserve"
       inkscape:export-filename="/media/ixsystems/sxe/books/I.EFH/images/frontCoverTie.png"
       inkscape:export-xdpi="300"
       inkscape:export-ydpi="300"><tspan
         style="font-style:normal;font-variant:normal;font-weight:normal;font-stretch:normal;text-align:center;text-anchor:middle;fill:#ffffff;fill-opacity:1;font-family:Kiss Kiss From Paris;-inkscape-font-specification:Kiss Kiss From Paris"
         id="tspan4442"
         y="1017.7248"
         x="325.64401"
         sodipodi:role="line">by Seth Kenlon</tspan></text>
    <path
       sodipodi:nodetypes="cccc"
       inkscape:connector-curvature="0"
       id="path7262"
       d="M 220.69803,117.98895 260.9054,340.28559 315.65237,103.84682 z"
       style="fill:#ffffff;fill-opacity:1;stroke:#000000;stroke-width:1.44525623;stroke-linecap:butt;stroke-linejoin:miter;stroke-miterlimit:4;stroke-opacity:1;stroke-dasharray:none;filter:url(#filter7272)"
       transform="matrix(0.9685652,0,0,0.96880752,8.2320422,3.1061452)"
       inkscape:export-filename="/media/ixsystems/sxe/books/I.EFH/images/frontCoverTie.png"
       inkscape:export-xdpi="300"
       inkscape:export-ydpi="300" />
    <rect
       style="fill:#ffffff;fill-opacity:1;stroke:none"
       id="rect6972"
       width="277.14285"
       height="111.42857"
       x="152.85715"
       y="115.21689"
       inkscape:export-filename="/media/ixsystems/sxe/books/I.EFH/images/frontCoverTie.png"
       inkscape:export-xdpi="300"
       inkscape:export-ydpi="300" />
    <path
       style="fill:#6dbf7f;fill-opacity:1;stroke:#000000;stroke-width:1px;stroke-linecap:butt;stroke-linejoin:miter;stroke-opacity:1"
       d="m 238.40841,374.18808 51.36007,-1.13257 54.06175,-114.08516 -168.05744,12.51476 z"
       id="path5050"
       inkscape:connector-curvature="0"
       sodipodi:nodetypes="ccccc"
       inkscape:export-filename="/media/ixsystems/sxe/books/I.EFH/images/frontCoverTie.png"
       inkscape:export-xdpi="300"
       inkscape:export-ydpi="300" />
    <path
       transform="matrix(-0.99810849,2.8633416e-4,0.05814083,0.94750695,508.36828,19.343529)"
       style="opacity:0.50655021;fill:#000000;fill-opacity:1;stroke:#000000;stroke-width:1.02829111px;stroke-linecap:butt;stroke-linejoin:miter;stroke-opacity:1;filter:url(#filter7256)"
       d="M 285.28142,233.99815 359.02257,324.11156 544.89064,182.6902"
       id="path7260"
       inkscape:connector-curvature="0"
       sodipodi:nodetypes="ccc"
       inkscape:export-filename="/media/ixsystems/sxe/books/I.EFH/images/frontCoverTie.png"
       inkscape:export-xdpi="300"
       inkscape:export-ydpi="300" />
    <path
       style="fill:#ffffff;fill-opacity:1;stroke:#000000;stroke-width:0.99999994px;stroke-linecap:butt;stroke-linejoin:miter;stroke-opacity:1"
       d="M 246.9823,228.1068 173.74623,324.45818 -46.467017,183.62856"
       id="path5046"
       inkscape:connector-curvature="0"
       sodipodi:nodetypes="ccc"
       inkscape:export-filename="/media/ixsystems/sxe/books/I.EFH/images/frontCoverTie.png"
       inkscape:export-xdpi="300"
       inkscape:export-ydpi="300" />
    <path
       sodipodi:nodetypes="ccc"
       inkscape:connector-curvature="0"
       id="path7242"
       d="M 285.28142,233.99815 359.02257,324.11156 544.89064,182.6902"
       style="fill:#000000;fill-opacity:1;stroke:#000000;stroke-width:1.02829111000000006px;stroke-linecap:butt;stroke-linejoin:miter;stroke-opacity:1;filter:url(#filter7256);opacity:0.50655022"
       transform="matrix(1,0,0,0.94573139,0,9.4659987)"
       inkscape:export-filename="/media/ixsystems/sxe/books/I.EFH/images/frontCoverTie.png"
       inkscape:export-xdpi="300"
       inkscape:export-ydpi="300" />
    <path
       style="fill:#ffffff;fill-opacity:1;stroke:#000000;stroke-width:1px;stroke-linecap:butt;stroke-linejoin:miter;stroke-opacity:1"
       d="M 283.85285,-15.504459 357.594,74.608948 543.46207,-66.812408"
       id="path5048"
       inkscape:connector-curvature="0"
       sodipodi:nodetypes="ccc"
       transform="translate(0,242.35975)"
       inkscape:export-filename="/media/ixsystems/sxe/books/I.EFH/images/frontCoverTie.png"
       inkscape:export-xdpi="300"
       inkscape:export-ydpi="300" />
    <rect
       style="fill:#ff0000;fill-opacity:1;stroke:#000000;stroke-width:0.5;stroke-linecap:round;stroke-linejoin:round;stroke-miterlimit:4;stroke-opacity:1;stroke-dasharray:none;stroke-dashoffset:0"
       id="rect6976"
       width="809.5"
       height="539.5"
       x="82.895233"
       y="372.01813"
       ry="0"
       transform="matrix(0,1,-1,0,0,0)" />
  </g>
</svg>
